<svg viewBox="0 0 24 24" fill="none" xmlns="http://www.w3.org/2000/svg">
  <path d="M12 22.75C6.07 22.75 1.25 17.93 1.25 12S6.07 1.25 12 1.25 22.75 6.07 22.75 12 17.93 22.75 12 22.75Zm0-20C6.9 2.75 2.75 6.9 2.75 12S6.9 21.25 12 21.25s9.25-4.15 9.25-9.25S17.1 2.75 12 2.75Z" fill="currentColor"/>
  <path d="M10.7397 16.2802c-.19 0-.38-.07-.53-.22-.29001-.29-.29001-.77 0-1.06l3-3-3-3.00004c-.29001-.29-.29001-.77 0-1.06.29-.29.77-.29 1.06 0l3.53 3.53004c.29.29.29.77 0 1.06l-3.53 3.53c-.15.15-.34.22-.53.22Z" fill="currentColor"/>
</svg>