<svg viewBox="0 0 18 18" fill="none" xmlns="http://www.w3.org/2000/svg">
  <path d="M11.25 17.0625h-4.5c-4.0725 0-5.8125-1.74-5.8125-5.8125v-4.5c0-4.0725 1.74-5.8125 5.8125-5.8125h3.75c.3075 0 .5625.255.5625.5625s-.255.5625-.5625.5625H6.75c-3.4575 0-4.6875 1.23-4.6875 4.6875v4.5c0 3.4575 1.23 4.6875 4.6875 4.6875h4.5c3.4575 0 4.6875-1.23 4.6875-4.6875V7.5c0-.3075.255-.5625.5625-.5625s.5625.255.5625.5625v3.75c0 4.0725-1.74 5.8125-5.8125 5.8125Z" fill="currentColor"/>
  <path d="M16.5 8.06249h-3c-2.565 0-3.5625-.9975-3.5625-3.5625v-3c0-.225.135-.435.345-.517498.21-.09.45-.0375.615.119998l6 6c.1575.1575.21.405.12.615-.09.21-.2925.345-.5175.345Zm-5.4375-5.205v1.6425c0 1.935.5025 2.4375 2.4375 2.4375h1.6425l-4.08-4.08ZM9.75 10.3125h-4.5c-.3075 0-.5625-.255-.5625-.5625s.255-.5625.5625-.5625h4.5c.3075 0 .5625.255.5625.5625s-.255.5625-.5625.5625ZM8.25 13.3125h-3c-.3075 0-.5625-.255-.5625-.5625s.255-.5625.5625-.5625h3c.3075 0 .5625.255.5625.5625s-.255.5625-.5625.5625Z" fill="currentColor"/>
</svg>