<svg xmlns="http://www.w3.org/2000/svg" viewBox="0 0 24 24">
  <path fill="currentColoe" d="m20.37 8.17-4.53-4.53a5.59 5.59 0 0 0-4.17-1.61l-5 .24a4.6 4.6 0 0 0-4.4 4.4l-.24 5a5.55 5.55 0 0 0 1.61 4.17l4.53 4.53a5.51 5.51 0 0 0 7.81 0l4.39-4.39a5.53 5.53 0 0 0 0-7.81Zm-1.07 6.74-4.39 4.39a4 4 0 0 1-5.68 0L4.7 14.77a4.06 4.06 0 0 1-1.18-3.04l.24-5a3.1 3.1 0 0 1 2.98-2.96l5-.24a4 4 0 0 1 3.03 1.17l4.53 4.53a4 4 0 0 1 0 5.68Z"/>
  <path fill="currentColoe" d="M9.5 6.25a3.26 3.26 0 0 0 0 6.5 3.26 3.26 0 0 0 0-6.5Zm0 5c-.96 0-1.75-.79-1.75-1.75s.79-1.75 1.75-1.75 1.75.79 1.75 1.75-.79 1.75-1.75 1.75Z"/>
</svg>
