<svg viewBox="0 0 22 22" fill="none" xmlns="http://www.w3.org/2000/svg">
  <path d="M16.931 20.8542h-3.6667c-2.2183 0-3.43748-1.2192-3.43748-3.4375V4.58333c0-2.21834 1.21918-3.4375 3.43748-3.4375h3.6667c2.2183 0 3.4375 1.21916 3.4375 3.4375V17.4167c0 2.2183-1.2283 3.4375-3.4375 3.4375ZM13.2643 2.52083c-1.4483 0-2.0625.61416-2.0625 2.0625V17.4167c0 1.4483.6142 2.0625 2.0625 2.0625h3.6667c1.4483 0 2.0625-.6142 2.0625-2.0625V4.58333c0-1.44834-.6142-2.0625-2.0625-2.0625h-3.6667Z" fill="currentColor"/>
  <path d="M15.0977 6.18749h-4.5834c-.3758 0-.68748-.31166-.68748-.6875 0-.37583.31168-.6875.68748-.6875h4.5834c.3758 0 .6875.31167.6875.6875 0 .37584-.3117.6875-.6875.6875ZM14.181 17.1875h-3.6667c-.3758 0-.68748-.3117-.68748-.6875s.31168-.6875.68748-.6875h3.6667c.3758 0 .6875.3117.6875.6875s-.3117.6875-.6875.6875ZM15.0979 13.521c-.0092 0-.0092 0 0 0l-4.5925-.0458c-.3759 0-.68755-.3117-.67838-.6967 0-.3758.31168-.6783.68748-.6783h.0092l4.5833.0458c.3759 0 .6875.3117.6784.6967-.0092.3758-.3117.6783-.6875.6783ZM13.2643 9.85416h-2.75c-.3758 0-.68748-.31167-.68748-.6875s.31168-.6875.68748-.6875h2.75c.3759 0 .6875.31167.6875.6875s-.3116.6875-.6875.6875ZM5.03316 20.8267c-.83417 0-1.6225-.5134-2.16334-1.4117l-.75166-1.2467c-.275-.4583-.48584-1.21-.48584-1.7416V4.53749c0-1.87 1.52167-3.39166 3.39167-3.39166 1.87 0 3.39167 1.52166 3.39167 3.39166V16.4175c0 .5317-.21084 1.2833-.48584 1.7417l-.75166 1.2466c-.5225.9075-1.31084 1.4209-2.145 1.4209Zm0-18.30587c-1.10917 0-2.01667.9075-2.01667 2.01666V16.4175c0 .2842.1375.7883.28417 1.0358L4.05232 18.7c.28417.4767.64167.7425.98084.7425.33916 0 .69666-.275.98083-.7425l.75167-1.2467c.14666-.2475.28416-.7516.28416-1.0358V4.53749c0-1.10916-.9075-2.01666-2.01666-2.01666Z" fill="currentColor"/>
  <path d="M7.73732 7.10416h-5.4175c-.37583 0-.6875-.31167-.6875-.6875s.31167-.6875.6875-.6875h5.4175c.37584 0 .6875.31167.6875.6875s-.31166.6875-.6875.6875Z" fill="currentColor"/>
</svg>